{
    "Addition Operation": {
        "input1": 3,
        "input2": 4,
        "operator": "ADDITION",
        "expectedResult": 7
    },
    "Multiplication Operation": {
        "input1": 6,
        "input2": 4,
        "operator": "MULTIPLICATION",
        "expectedResult": 24
    },
    "Subtraction Operation": {
        "input1": 9,
        "input2": 4,
        "operator": "SUBTRACTION",
        "expectedResult": 5
    }
}