{
    "calcData": [
        {
            "input1": 3,
            "input2": 4,
            "operator": "ADDITION",
            "expectedResult": 7
        },
        {
            "input1": 6,
            "input2": 4,
            "operator": "MULTIPLICATION",
            "expectedResult": 24
        },
        {
            "input1": 3,
            "input2": 8,
            "operator": "ADDITION",
            "expectedResult": 11
        },
        {
            "input1": 9,
            "input2": 4,
            "operator": "SUBTRACTION",
            "expectedResult": 5
        },
        {
            "input1": 3,
            "input2": 4,
            "operator": "MULTIPLICATION",
            "expectedResult": 12
        },
        {
            "input1": 6,
            "input2": 4,
            "operator": "ADDITION",
            "expectedResult": 10
        },
        {
            "input1": 3,
            "input2": 8,
            "operator": "SUBTRACTION",
            "expectedResult": -5
        },
        {
            "input1": 9,
            "input2": 4,
            "operator": "ADDITION",
            "expectedResult": 13
        }
    ]
}